﻿101 101
###################################################s#################################################
#   #         # #           #         #         #                 # #               #   #       #   #
# ### # ##### # # # ####### ##### # ### ####### # # ### ######### # # ######### ### # # ##### # # # #
#     #     #   # #     # #   #   # #         #   # #   #     # # #     #     # #     #       # # # #
# ######### # ### ##### # ### # ### # ######### ### ##### ### # # ####### ### # ########### ##### # #
#   #   #   # #   #   # #   # # #   #   #     # # #     #   # #     #   # #   #   #         #     # #
### # ### ##### ### # # # # # # ### ### # ### # # ##### ### # ##### # # # # ### # ### ####### ##### #
#   #   #         # #   # # # #   # #   # # # #   #       # #   #     # # #   # #   #   #   # #     #
# ##### ########### ##### # # # # ### ### # # ##### ##### # ### ####### # ### ##### ##### # # # #####
#     #         #   # #   #   # # #   #   #   #   #     # # # #     #     # # #   # #     #   #     #
##### ### ##### # ### # ####### # # ### ### ### # # ### ### # ##### ####### # # # # # ############# #
#   #     #   # # #   # #   #   #   #   #   #   # #   # #   #     #   #     #   # # # #       #     #
# ##### ### # ### ### # # # # ####### ### ### ### ### # # ##### # ### # ######### # # # ##### # ### #
# #   # #   #     #   # # #   # #     # #     # # #   #         # #   # #         # #   #   # # #   #
# # # # # ######### # # ##### # # ##### ####### # ############### # ### # ######### ##### # # # #####
# # #   #     #     # #     #   #   #     #   #   #           #   # #   # #     #         # # #     #
# # ##### ### # ##### ##### ####### ### # ### # ### ######### # ### # # # # # # ####### ##### ##### #
#   #   # #   #     #   #   #   #   #   #     # #   #       # #   # # #   # # #         #     #   # #
# ### # ### ### ### # ### ### # # ### ### ##### ### # ##### # ##### ##### ### ######### # ##### # # #
# #   # #   # # # # # #   #   #   #     # #   #     #   #   #     #     #   #   # #     # #   # #   #
# # ### # ### # # # ### ### # ##### ### ### # ########### # ##### # ### ### ### # # ##### # # # ### #
# # #     #     # #     # # #     #   #     #           # #   # # #   # # #   # #   #     # #   #   #
### # ####### ### ####### # ##### ### ############# ### # ### # # ### # # ### # ##### ##### ##### ###
#   #   #   # #         #     # #   # # #           # #   # #   #   # # #   # #     # #   #     # # #
# ### ### # # ####### # ##### # ### # # # ### ####### ##### # ##### ### # ### # ### # ### ##### # # #
#   # #   # #     #   #   #     #   #   #   # #   # #         #   #     # #   #   #   #     #   # # #
# # # # ### ##### # ##### ##### # ##### ### ### # # # ######### # ####### # ##### ##### ##### ### # #
# # # # # #   # # # #   #   # # #   #   # #     # #       #     #   #       #   # #     #     #   # #
# # ### # ### # # # # # ### # # ### # ### ####### ####### # ####### # ######### # # ##### ##### ### #
# #       #   # #   # # # # #   #   # #       # #   #     # # #     #     #     #   #   #     #     #
# ######### ### ##### # # # ### # ### ### ### # ### ####### # # ######### # ### ### # # ### # #######
#       #   #         #   #   # # # # #   # # #   #         # # #         #   # #   # #   # #       #
######### ### # ######### ### # # # # # ### # # ############# # # ######### # ### ### ### ### ##### #
#   #     #   #         #   # # # # #   #   # #         #     # #     #     #     #   #     #     # #
# # # ##### ########### ### # ### # ##### ### # ### ### ### # # ##### ### ####### # ####### ####### #
# #   #   #           #   # #     #     #     #   #   #   # # #     #   # # #   # #       #       # #
# ####### ########### ### # ########### # ####### ### ### # # ### ##### # # # # # ####### ####### # #
# # #             # # # # # #           #   # #   # # # #   # # #       #   # # #       # #   # # # #
# # # # ######### # # # # ### # ##### ##### # # ### # # ##### # ######### ### # ####### # # # # # # #
# #   # #       # # #   #     #   #   #     # #     # #       #           #   #       # #   # # # # #
# ### # ### ### # # ### ######### ##### ##### ##### # ####### ##### ####### ######### ### ### # # # #
#   # #   # #   #   # #         # #     #   #   #   #   #   #     #   #   # #     # #   #   # # #   #
### ##### ### # ### # ######### # # ##### ### # # ##### # # ##### ##### # # # ### # ### ##### # ### #
#   #   # #   #   # # #         #   #         #       #   # #           #   # #   #   #     # #     #
# ### # # # ####### # # ############# ################# ### ################# ### ### ##### # # #####
# #   # # #   #   #   #       # #       #             #   # #     #   #     #   # #     # # # # #   #
# # ### # # # # # ### ####### # # ####### ########### ### # # ### # ### ### # # # # ### # # # # # # #
# #   #   # #   # #   #   #   #     #   # #     #     #   #     # # #   # #   # #   #   # #   #   # #
# # # ##### ##### # ### # # ######### # # # ##### ######### ##### # # ### ##### ####### # ######### #
# # # #   # #   #   #   # #       #   #   #       #       #   #   #       #   #       #     # #     #
# # # ### # # # ##### # ######### # ####### ########### # ### # ######### ### ####### ##### # # #####
# # #   # # # #     # #         #   #     #             # #   # #     #         #   #   # # # # #   #
### ### # # # ##### ####### ### ####### # ############### ##### # ### ######### # ##### # # # # # ###
#   # # # # # #   #         # #         #   #       #   #     #   #   #   #   # #     # #     # #   #
# ### # # # # ### ########### ############# ### ##### # ##### ### # ### # # ### ### # # ##### # ### #
# #   # #   #   #     #           #       #   #       #     #   # # #   # #   #   # # #     # #   # #
# ### # # ### # # # ### # ####### # ######### ######### # # ### ### # ### # # ### # ####### ##### # #
#     # #   # # # # #   #   #       #         #       # # #   #   # # #   # # #   #       #     #   #
### ### ### # # ### # ##### ######### ######### ##### ### ####### # # # ### # # ####### ##### ##### #
#   #   # # # #   # # #   # #   #               #       # #       # # #   # # #         #     #     #
# ### ### # ##### # # # # # # # # ##################### # # ####### # ### # # ##### ##### ##### #####
#   #   # # #   # # #   # # # #   # #   #   #         #   # #   #       # # #       #   # #   #   # #
####### # # # # # # ##### # # ##### # # # # # ####### ##### # # # ####### ####### ### # # # # ### # #
#       #     #   #   #   #   # #   # #   #   #   #   #     # #   #   #   #     #   # #   # #     # #
# ################# ### ####### # # # ########### # # # ##### ##### # # ### ### ### # ### # ####### #
#     #     #         #   #   #   # #       #     # # # #   # #   # # #   #   #   # # #   # # #     #
##### # ### # ##### # ### # # ##### ####### # ##### # # # # # # ### # ### ### ### ### ##### # # # ###
#     # # # # #   # #   #   # #         #   # #     # # # #   #   # #   #       # #   #   # # # #   #
# ### # # # ### # # # # ##### # # ####### ### # ##### # # ####### # # ########### # ### # # # # ### #
# #   #   # #   # # # # #   # # # #     #   # # #     # #   #   #   #       #     # #   # # #     # #
# ##### ### # ### ### ### # # # ### ### ### # # ### ### ### # # ### ### ### # ##### # ### # ####### #
#       #   # # #   # #   # # #     #     #   #   # # # #   # #   # #   #   # #     #   #   #   #   #
# ####### ### # ### # # ### # ####### ####### ### # # # ### # ### # # ##### # # ### ### ##### # # # #
#       # #   #   # #   #   # #       #       # # #   #   #   # # # #     # # #   #   #       #   # #
####### # # ### ### # ### # # # # ##### ####### # ####### ##### # ####### ### # # ##### ########### #
#     # # # #     # #   # # # # # #     #       #       # #     #         #   # # #   # #   #   #   #
# # ### # # ##### # ### # # # # # # ##### ##### ####### # ##### ######### # ##### # # # # # ### # ###
# #     #   #     #   # # # # # # # #         #       #   #   #           #     # # # # # #   # # # #
# ######### # ####### ### ### # ### ########### ##### ##### # ########### ##### # # # # # ### # # # #
# #   #   #   #     #   # #   #   #       #     #   # #     #           # #   # # # # # #   # #     #
# # # # # ##### ### ### # # ##### ####### # ##### # # # # ############# ### # # # # # # ### # #######
# # # # #   #   # #   # #       #     # #   #     # # # #   # #       # #   # # #   #   # # #       #
# # ### ### # ### ### # ####### # ### # ##### ##### # # ### # # # ### # # ### # ##### ### # ####### #
#   #   #     #     #   #   #     # # # #       #   # #   # #   #   # #   #   # #   #     # #     # #
##### ### ####### # ### # # ####### # # # ##### ### # ##### ### ### ####### ### # # ####### # # ### #
#     #     #   # #     # #       #     # #   #   # #     #   # # #       # # #   # #     # # # #   #
# ### ####### # ### ##### ####### ##### # ### ### ####### ### # # ### ##### # # ### # ### # # # # ###
# #   #       #   #     # #     #     # #       #       #     # # #   #     #   # #     #     # #   #
# ##### ######### ##### # # ### ##### ######### ####### ####### # # # # ##### ### ############# ### #
# #   # #         #     #   #   #   #         #     # #       # # # # # #   #   #   #         #   # #
# # # # # ########### ####### ### # ##### ######### # ####### # # # # # # # ### # # # ####### # ### #
#   # # #   #       # #   #   #   #     # #     #         #   # # # # # # #   #   # #   #   # # #   #
# ### # ### # ##### # ### # ##### ### # # # ### # ######### # # # # ### # ####### ##### ### # # # # #
#   #     # #   # # #     # #   # #   # #   #   # #   #     # # # #     #   #     #     #   # # # # #
########### ### # # ####### # # ### ### ##### ### # # # ####### # ####### # # ##### ##### ### # # ###
#         # #   # #       #   #   #   #     # #   # #   #   #   #       # #   #   # #   #     # #   #
# ####### # # ### ####### ####### # # ##### # # ### ##### # # ####### # ##### ### # ### # ##### ### #
#   #   #   #     # #         #   # # #   # # # #   #   # # #   #   # #     #     #   # #   #   #   #
# # # # ######### # # ######### ##### # # # # # # ### # # # ### # # # ##### ######### # ### ##### # #
# #   #             #                 # #   #   #     #   #       #   #               #           # #
###################################################t#################################################